…
```r
can_france %>% 
  rename(Canada = Canada_lifeExp, 
         France = France_lifeExp) %>% 
  pivot_longer(cols = c("Canada",
                        "France"),
               names_to = "country",
               values_to = "lifeExp")
```

```
## # A tibble: 24 x 3
##     year country lifeExp
##    <int> <chr>     <dbl>
##  1  1952 Canada     68.8
##  2  1952 France     67.4
##  3  1957 Canada     70.0
##  4  1957 France     68.9
##  5  1962 Canada     71.3
##  6  1962 France     70.5
##  7  1967 Canada     72.1
##  8  1967 France     71.6
##  9  1972 Canada     72.9
## 10  1972 France     72.4
## # … with 14 more rows
```
…
### Part 2
In this section, we will now re-lengthen the data!


```r
china_germany %>% 
  pivot_longer(cols = -year,
               names_to = c(".value", "country"),
               names_sep = "_")
```

```
## # A tibble: 24 x 4
##     year country lifeExp gdpPercap
##    <int> <chr>     <dbl>     <dbl>
##  1  1952 China      44        400.
##  2  1952 Germany    67.5     7144.
##  3  1957 China      50.5      576.
##  4  1957 Germany    69.1    10188.
##  5  1962 China      44.5      488.
##  6  1962 Germany    70.3    12902.
##  7  1967 China      58.4      613.
##  8  1967 Germany    70.8    14746.
##  9  1972 China      63.1      677.
## 10  1972 Germany    71      18016.
## # … with 14 more rows
```
…
### 3.1 
For each guest in the guestlist tibble, add a column for email address, which can be found in email tibble.

First, separate the emails by row.

```r
sep_emails <- e %>% 
  separate_rows(guest, sep = ", ")

sep_emails
```

```
## # A tibble: 28 x 2
##    guest           email              
##    <chr>           <chr>              
##  1 Sommer Medrano  sommm@gmail.com    
##  2 Phillip Medrano sommm@gmail.com    
##  3 Blanka Medrano  sommm@gmail.com    
##  4 Emaan Medrano   sommm@gmail.com    
##  5 Blair Park      bpark@gmail.com    
##  6 Nigel Webb      bpark@gmail.com    
##  7 Sinead English  singlish@hotmail.ca
##  8 Ayra Marks      marksa42@gmail.com 
##  9 Jolene Welsh    jw1987@hotmail.com 
## 10 Hayley Booker   jw1987@hotmail.com 
## # … with 18 more rows
```


```r
joined_list <- g %>% 
  rename(guest = "name") %>% 
  left_join(sep_emails, by="guest")

joined_list
```

```
## # A tibble: 30 x 8
##    party guest meal_wedding meal_brunch attendance_wedd… attendance_brun…
##    <dbl> <chr> <chr>        <chr>       <chr>            <chr>           
##  1     1 Somm… PENDING      PENDING     PENDING          PENDING         
##  2     1 Phil… vegetarian   Menu C      CONFIRMED        CONFIRMED       
##  3     1 Blan… chicken      Menu A      CONFIRMED        CONFIRMED       
##  4     1 Emaa… PENDING      PENDING     PENDING          PENDING         
##  5     2 Blai… chicken      Menu C      CONFIRMED        CONFIRMED       
##  6     2 Nige… <NA>         <NA>        CANCELLED        CANCELLED       
##  7     3 Sine… PENDING      PENDING     PENDING          PENDING         
##  8     4 Ayra… vegetarian   Menu B      PENDING          PENDING         
##  9     5 Atla… PENDING      PENDING     PENDING          PENDING         
## 10     5 Denz… fish         Menu B      CONFIRMED        CONFIRMED       
## # … with 20 more rows, and 2 more variables: attendance_golf <chr>,
## #   email <chr>
```
…
As you can see, using the anti-join function allows us to produce all the people who are in the email data frame (i.e: they have an email), but are not included in g (i.e: the guestlist). 

### 3.3 
In this section, we will make a guestlist that includes everyone we have emails for (in addition to the onles in the original guestlist). To do this, we will simply join the table we made in 3.2 with the original guestlist table but appending them to the end. 


```r
joined_list %>% 
  rename(name = "guest") %>% 
  bind_rows(not_in_guestlist)
```

```
## # A tibble: 33 x 8
##    party name  meal_wedding meal_brunch attendance_wedd… attendance_brun…
##    <dbl> <chr> <chr>        <chr>       <chr>            <chr>           
##  1     1 Somm… PENDING      PENDING     PENDING          PENDING         
##  2     1 Phil… vegetarian   Menu C      CONFIRMED        CONFIRMED       
##  3     1 Blan… chicken      Menu A      CONFIRMED        CONFIRMED       
##  4     1 Emaa… PENDING      PENDING     PENDING          PENDING         
##  5     2 Blai… chicken      Menu C      CONFIRMED        CONFIRMED       
##  6     2 Nige… <NA>         <NA>        CANCELLED        CANCELLED       
##  7     3 Sine… PENDING      PENDING     PENDING          PENDING         
##  8     4 Ayra… vegetarian   Menu B      PENDING          PENDING         
##  9     5 Atla… PENDING      PENDING     PENDING          PENDING         
## 10     5 Denz… fish         Menu B      CONFIRMED        CONFIRMED       
## # … with 23 more rows, and 2 more variables: attendance_golf <chr>,
## #   email <chr>
```
…
