…
## 1.4 

We will filter gapminder so that it only shows the max GDP Per Capita of each country. We will group_by country, then we will make use of the slice() function, which will only keep the max value.


```r
gapminder %>% 
  select(country, gdpPercap) %>% 
  group_by(country) %>% 
  slice(which.max(gdpPercap))
```

```
## # A tibble: 142 x 2
## # Groups:   country [142]
##    country     gdpPercap
##    <fct>           <dbl>
##  1 Afghanistan      978.
##  2 Albania         5937.
##  3 Algeria         6223.
##  4 Angola          5523.
##  5 Argentina      12779.
##  6 Australia      34435.
##  7 Austria        36126.
##  8 Bahrain        29796.
##  9 Bangladesh      1391.
## 10 Belgium        33693.
## # … with 132 more rows
```
…
And when we run it, we only get a subset of the data from Rwanda and Afghanistan. In order to do this properly, there are 2 different ways which could work. Firstly, we could replace the "==" with "%in%". This will produce the countries of either Rwanda or Afghanistan. Secondly, we could use the "|" operator. These 2 methods are demonstrated below.


```r
gapminder %>% 
  filter(country %in% c("Rwanda", "Afghanistan"))
```

```
## # A tibble: 24 x 6
##    country     continent  year lifeExp      pop gdpPercap
##    <fct>       <fct>     <int>   <dbl>    <int>     <dbl>
##  1 Afghanistan Asia       1952    28.8  8425333      779.
##  2 Afghanistan Asia       1957    30.3  9240934      821.
##  3 Afghanistan Asia       1962    32.0 10267083      853.
##  4 Afghanistan Asia       1967    34.0 11537966      836.
##  5 Afghanistan Asia       1972    36.1 13079460      740.
##  6 Afghanistan Asia       1977    38.4 14880372      786.
##  7 Afghanistan Asia       1982    39.9 12881816      978.
##  8 Afghanistan Asia       1987    40.8 13867957      852.
##  9 Afghanistan Asia       1992    41.7 16317921      649.
## 10 Afghanistan Asia       1997    41.8 22227415      635.
## # … with 14 more rows
```

```r
gapminder %>% 
  filter(country == "Rwanda" | country == "Afghanistan")
```

```
## # A tibble: 24 x 6
##    country     continent  year lifeExp      pop gdpPercap
##    <fct>       <fct>     <int>   <dbl>    <int>     <dbl>
##  1 Afghanistan Asia       1952    28.8  8425333      779.
##  2 Afghanistan Asia       1957    30.3  9240934      821.
##  3 Afghanistan Asia       1962    32.0 10267083      853.
##  4 Afghanistan Asia       1967    34.0 11537966      836.
##  5 Afghanistan Asia       1972    36.1 13079460      740.
##  6 Afghanistan Asia       1977    38.4 14880372      786.
##  7 Afghanistan Asia       1982    39.9 12881816      978.
##  8 Afghanistan Asia       1987    40.8 13867957      852.
##  9 Afghanistan Asia       1992    41.7 16317921      649.
## 10 Afghanistan Asia       1997    41.8 22227415      635.
## # … with 14 more rows
```
…
