Assignment 5
…
filtered <- gapminder %>% 
  filter(continent != "Oceania") %>% 
  select(country, continent, lifeExp) %>% 
  droplevels()

filtered$continent %>% 
  nlevels()

## [1] 4

filtered

## # A tibble: 1,680 x 3
##    country     continent lifeExp
##    <fct>       <fct>       <dbl>
##  1 Afghanistan Asia         28.8
##  2 Afghanistan Asia         30.3
##  3 Afghanistan Asia         32.0
##  4 Afghanistan Asia         34.0
##  5 Afghanistan Asia         36.1
##  6 Afghanistan Asia         38.4
##  7 Afghanistan Asia         39.9
##  8 Afghanistan Asia         40.8
##  9 Afghanistan Asia         41.7
## 10 Afghanistan Asia         41.8
## #  with 1,670 more rows
…
We were lucky enough to have our file survive the round trip!

Exercise 4

In Assignment 2, I created a histogram of life expectancies from 2007. In this exercise, I will modify the graph to change the binwidth and change the colour so that red shows a high density, and green shows a low density. Also, I will superimpose a density curve on top of it.

Here is my original plot:

lifeExp2007 <- gapminder %>%
  select(country, lifeExp, year) %>%
  filter(year == 2007)
lifeExp2007

## # A tibble: 142 x 3
##    country     lifeExp  year
##    <fct>         <dbl> <int>
##  1 Afghanistan    43.8  2007
##  2 Albania        76.4  2007
##  3 Algeria        72.3  2007
##  4 Angola         42.7  2007
##  5 Argentina      75.3  2007
##  6 Australia      81.2  2007
##  7 Austria        79.8  2007
##  8 Bahrain        75.6  2007
##  9 Bangladesh     64.1  2007
## 10 Belgium        79.4  2007
## #  with 132 more rows
…
