…
# Task 3

In this section, we will be looking at the spread of GDP per capita within the continents. In order to do this, we will need to focus on one specific year. We will look at the year 2007.


```r
gdpspread <- gapminder %>%
  filter(year == "2007") %>% 
  select(continent, country, gdpPercap) %>% 
  group_by(continent)
gdpspread
```

```
## # A tibble: 142 x 3
## # Groups:   continent [5]
##    continent country     gdpPercap
##    <fct>     <fct>           <dbl>
##  1 Asia      Afghanistan      975.
##  2 Europe    Albania         5937.
##  3 Africa    Algeria         6223.
##  4 Africa    Angola          4797.
##  5 Americas  Argentina      12779.
##  6 Oceania   Australia      34435.
##  7 Europe    Austria        36126.
##  8 Asia      Bahrain        29796.
##  9 Asia      Bangladesh      1391.
## 10 Europe    Belgium        33693.
## # … with 132 more rows
```
…
# Task 5

How is life expectancy changing over time in different continents? To analyze this question, we will group into continents. Then, we will find the average life expectancy in each year. Finally, we can plot the trends of the 5 different continents on the same graph to see the average life expectancy change. 


```r
avgLE <- gapminder %>% 
  group_by(continent, year) %>% 
  summarize(mean(lifeExp)) %>% 
  rename(lifeE = "mean(lifeExp)")
avgLE
```

```
## # A tibble: 60 x 3
## # Groups:   continent [5]
##    continent  year lifeE
##    <fct>     <int> <dbl>
##  1 Africa     1952  39.1
##  2 Africa     1957  41.3
##  3 Africa     1962  43.3
##  4 Africa     1967  45.3
##  5 Africa     1972  47.5
##  6 Africa     1977  49.6
##  7 Africa     1982  51.6
##  8 Africa     1987  53.3
##  9 Africa     1992  53.6
## 10 Africa     1997  53.6
## # … with 50 more rows
```
…
